Online Retail Dataset
…
Some stock codes have more than one corresponding description as can be seen above with the highest selling SKU.

# Most profitable skus
profitable_stock_code <- popular_stock_code %>% left_join(retail) %>% group_by(stock_code,description,total_transaction_number) %>%
    summarise(total_spend = sum(total_spend)) %>%
  filter(total_spend > 0) %>%
  arrange(desc(total_spend))
profitable_stock_code

## # A tibble: 26 x 4
## # Groups:   stock_code, description [26]
##    stock_code description                          total_transactio~ total_spend
##    <chr>      <chr>                                            <int>       <dbl>
##  1 22423      "REGENCY CAKESTAND 3 TIER"                        2163     162625.
##  2 47566      "PARTY BUNTING"                                   1714      98244.
##  3 85123A     "WHITE HANGING HEART T-LIGHT HOLDER"              2290      97610.
##  4 85099B     "JUMBO BAG RED RETROSPOT"                         2142      92356.
##  5 22086      "PAPER CHAIN KIT 50'S CHRISTMAS "                 1195      63486.
##  6 84879      "ASSORTED COLOUR BIRD ORNAMENT"                   1495      58960.
##  7 22386      "JUMBO BAG PINK POLKADOT"                         1240      41600.
##  8 22720      "SET OF 3 CAKE TINS PANTRY DESIGN "               1461      37428.
##  9 22960      "JAM MAKING SET WITH JARS"                        1218      36116.
## 10 20725      "LUNCH BAG RED RETROSPOT"                         1629      34897.
## # ... with 16 more rows
…
segments <- rfm_segment(rfm_data, segment_names, recency_lower, recency_upper,
                        frequency_lower, frequency_upper, monetary_lower, monetary_upper)

# Combine customer segmentation with main data frame
combined_rfm_df <- retail %>% left_join(segments) %>% 
  select(customer_id,total_spend,segment,rfm_score,recency_score,frequency_score,monetary_score,stock_code)
combined_rfm_df <- combined_rfm_df %>% group_by(customer_id) %>%
  summarise(total_spend = sum(total_spend),segment = unique(segment),rfm_score = unique(rfm_score),
            recency_score = unique(recency_score),frequency_score = unique(frequency_score), monetary_score = unique(monetary_score))
combined_rfm_df

## # A tibble: 4,352 x 7
##    customer_id total_spend segment         rfm_score recency_score frequency_score
##    <chr>             <dbl> <chr>               <dbl>         <int>           <int>
##  1 12347             4310  Champions             555             5               5
##  2 12348             1437. Loyal Customers       244             2               4
##  3 12349             1458. Others                414             4               1
##  4 12350              294. Others                112             1               1
##  5 12352             1145. Loyal Customers       344             3               4
##  6 12353               89  Lost                  111             1               1
##  7 12354             1079. Others                114             1               1
##  8 12355              459. Others                112             1               1
##  9 12356             2487. Loyal Customers       435             4               3
## 10 12357             6208. Others                315             3               1
## # ... with 4,342 more rows, and 1 more variable: monetary_score <int>
…
